{
  "id": "fake-cycle",
  "type": "Cycle",
  "name": "fake cycle",
  "functionalUnit": "1 ha",
  "defaultSource": {
    "id": "fake-source",
    "type": "Source"
  },
  "dataPrivate": false,
  "endDate": "2009",
  "cycleDuration": 365,
  "site": {
    "id": "fake-site",
    "type": "Site"
  },
  "practices": [
    {
      "term": {
        "@id": "soilPreparationWithDiscHarrow",
        "@type": "Term",
        "termType": "operation"
      },
      "value": [
        10
      ],
      "@type": "Practice"
    },
    {
      "term": {
        "@id": "grainDryingMachineUnspecified",
        "@type": "Term",
        "termType": "operation"
      },
      "value": [
        20
      ],
      "@type": "Practice"
    },
    {
      "term": {
        "@id": "harrowingWithTineCultivator",
        "@type": "Term",
        "termType": "operation"
      },
      "value": [
        30
      ],
      "@type": "Practice"
    },
    {
      "term": {
        "@id": "cuttingTreesMachineUnspecified",
        "@type": "Term",
        "termType": "operation"
      },
      "value": [
        30
      ],
      "@type": "Practice"
    }
  ],
  "completeness": {
    "@type": "Completeness",
    "electricityFuel": false,
    "material": false,
    "fertiliser": true,
    "other": true,
    "pesticidesAntibiotics": true,
    "soilAmendments": true,
    "water": true,
    "products": true,
    "cropResidue": true,
    "animalFeed": true,
    "transport": false,
    "excreta": true,
    "waste": true,
    "liveAnimals": true,
    "operations": true
  },
  "defaultMethodClassification": "modelled",
  "defaultMethodClassificationDescription": "description"
}
