[
  {
    "@type": "Input",
    "term": {
      "@type": "Term",
      "@id": "seed"
    },
    "value": [
      110.90555
    ],
    "statsDefinition": "regions",
    "sd": [
      0.0304
    ],
    "model": {
      "@type": "Term",
      "@id": "faostat2018"
    }
  }
]
