[
  {
    "term": {
      "@type": "Term",
      "@id": "ch4ToAirFloodedRice"
    },
    "value": [
      134.47
    ],
    "methodModel": {
      "@type": "Term",
      "@id": "ipcc2019"
    },
    "methodTier": "tier 1",
    "min": [
      59.2
    ],
    "max": [
      267.52
    ],
    "sd": [
      52.08
    ],
    "statsDefinition": "modelled",
    "@type": "Emission"
  }
]
