{
  "id": "fake-cycle",
  "type": "Cycle",
  "name": "fake cycle",
  "functionalUnit": "1 ha",
  "defaultSource": {
    "id": "fake-source",
    "type": "Source"
  },
  "dataPrivate": false,
  "endDate": "2009",
  "cycleDuration": 365,
  "site": {
    "id": "fake-site",
    "type": "Site",
    "siteType": "cropland",
    "measurements": [
      {
        "term": {
          "@type": "Term",
          "@id": "ecoClimateZone"
        },
        "value": [
          2
        ],
        "@type": "Measurement",
        "methodClassification": "unsourced assumption"
      },
      {
        "@type": "Measurement",
        "term": {
          "@type": "Term",
          "@id": "totalNitrogenPerKgSoil"
        },
        "value": [
          0.812
        ],
        "depthUpper": 0,
        "depthLower": 50,
        "methodClassification": "unsourced assumption"
      }
    ]
  },
  "inputs": [
    {
      "term": {
        "@type": "Term",
        "name": "Urea (kg N)",
        "termType": "inorganicFertiliser",
        "@id": "ureaKgN",
        "units": "kg N"
      },
      "value": [
        70
      ],
      "@type": "Input"
    }
  ],
  "products": [
    {
      "@type": "Product",
      "term": {
        "@id": "belowGroundCropResidue",
        "@type": "Term"
      },
      "value": [
        1000
      ],
      "properties": [
        {
          "term": {
            "@type": "Term",
            "@id": "nitrogenContent",
            "units": "%"
          },
          "value": 0,
          "@type": "Property"
        }
      ]
    },
    {
      "@type": "Product",
      "term": {
        "@id": "aboveGroundCropResidueTotal",
        "@type": "Term"
      },
      "properties": [
        {
          "term": {
            "@type": "Term",
            "@id": "nitrogenContent",
            "units": "%"
          },
          "value": 0.7,
          "@type": "Property"
        }
      ],
      "value": [
        500
      ]
    },
    {
      "@type": "Product",
      "term": {
        "@type": "Term",
        "@id": "aboveGroundCropResidueLeftOnField"
      },
      "value": [
        250
      ]
    },
    {
      "@type": "Product",
      "term": {
        "@id": "discardedCropTotal",
        "@type": "Term"
      },
      "properties": [
        {
          "term": {
            "@type": "Term",
            "@id": "nitrogenContent",
            "units": "%"
          },
          "value": 0.7,
          "@type": "Property"
        }
      ],
      "value": [
        500
      ]
    },
    {
      "@type": "Product",
      "term": {
        "@type": "Term",
        "@id": "discardedCropLeftOnField"
      },
      "value": [
        250
      ]
    }
  ],
  "completeness": {
    "@type": "Completeness",
    "electricityFuel": true,
    "material": true,
    "fertiliser": true,
    "other": true,
    "pesticidesAntibiotics": true,
    "soilAmendments": true,
    "water": true,
    "products": true,
    "cropResidue": true,
    "animalFeed": true,
    "transport": false,
    "excreta": true,
    "waste": true,
    "liveAnimals": true,
    "operations": true
  },
  "defaultMethodClassification": "modelled",
  "defaultMethodClassificationDescription": "description"
}
