{
  "@type": "Indicator",
  "term": {
    "@type": "Term",
    "@id": "damageToTerrestrialEcosystemsLandTransformation"
  },
  "methodModel": {
    "@type": "Term",
    "@id": "chaudharyBrooks2018"
  },
  "value": 4.19379706281784e-12
}
