{
  "id": "fake-cycle",
  "type": "Cycle",
  "site": {
    "id": "fake-site",
    "type": "Site"
  },
  "defaultSource": {
    "id": "fake-source",
    "type": "Source"
  },
  "functionalUnit": "relative",
  "endDate": "2014",
  "cycleDuration": 365,
  "dataPrivate": false,
  "inputs": [
    {
      "term": {
        "@type": "Term",
        "name": "Maize, grain",
        "termType": "crop",
        "@id": "maizeGrain",
        "units": "kg"
      },
      "value": [
        1.5789473684210527
      ],
      "isAnimalFeed": true,
      "@type": "Input"
    },
    {
      "term": {
        "@type": "Term",
        "name": "Wheat, grain",
        "termType": "crop",
        "@id": "wheatGrain",
        "units": "kg"
      },
      "value": [
        0.7368421052631579
      ],
      "isAnimalFeed": true,
      "@type": "Input"
    },
    {
      "term": {
        "@type": "Term",
        "name": "Barley, grain",
        "termType": "crop",
        "@id": "barleyGrainInHusk",
        "units": "kg"
      },
      "value": [
        0.4210526315789474
      ],
      "isAnimalFeed": true,
      "@type": "Input"
    },
    {
      "term": {
        "@type": "Term",
        "name": "Soybean, grain",
        "termType": "crop",
        "@id": "soybeanSeedWhole",
        "units": "kg"
      },
      "value": [
        0.8421052631578948
      ],
      "isAnimalFeed": true,
      "@type": "Input"
    },
    {
      "term": {
        "@type": "Term",
        "name": "Diesel",
        "termType": "fuel",
        "@id": "diesel",
        "units": "kg"
      },
      "value": [
        0.004315
      ],
      "@type": "Input"
    },
    {
      "term": {
        "@type": "Term",
        "name": "Electricity, market mix",
        "termType": "electricity",
        "@id": "electricityMarketMix",
        "units": "kWh"
      },
      "value": [
        0.25
      ],
      "@type": "Input"
    },
    {
      "term": {
        "@type": "Term",
        "name": "Electricity, natural gas",
        "termType": "electricity",
        "@id": "electricityNaturalGas",
        "units": "kWh"
      },
      "value": [
        1.55
      ],
      "@type": "Input"
    }
  ],
  "products": [
    {
      "term": {
        "@type": "Term",
        "name": "Broiler chicken",
        "termType": "liveAnimal",
        "@id": "broilerChicken",
        "units": "number"
      },
      "value": [
        1
      ],
      "primary": true,
      "properties": [
        {
          "term": {
            "@type": "Term",
            "termType": "property",
            "@id": "liveweightPerHead",
            "units": "kg liveweight / head"
          },
          "value": 1.9,
          "@type": "Property"
        },
        {
          "term": {
            "@type": "Term",
            "termType": "property",
            "@id": "processingConversionLiveweightToColdCarcassWeight",
            "units": "%"
          },
          "value": 80.78947368421052,
          "@type": "Property"
        }
      ],
      "@type": "Product"
    },
    {
      "term": {
        "@type": "Term",
        "termType": "excreta",
        "@id": "excretaKgN",
        "units": "kg N"
      },
      "@type": "Product"
    }
  ],
  "completeness": {
    "electricityFuel": true,
    "material": true,
    "fertiliser": false,
    "other": false,
    "pesticidesAntibiotics": false,
    "soilAmendments": false,
    "water": false,
    "products": true,
    "cropResidue": false,
    "animalFeed": true,
    "@type": "Completeness",
    "transport": false,
    "excreta": true,
    "waste": true,
    "liveAnimals": true,
    "operations": true
  },
  "defaultMethodClassification": "modelled",
  "defaultMethodClassificationDescription": "description"
}
