{
  "@type": "Indicator",
  "term": {
    "@type": "Term",
    "@id": "damageToHumanHealthHumanToxicityNonCancerogenic"
  },
  "methodModel": {
    "@type": "Term",
    "@id": "lcImpactCertainEffectsInfinite"
  },
  "value": 1.0508622464097773e-8
}
