[
  {
    "@type": "Emission",
    "term": {
      "@type": "Term",
      "@id": "no3ToGroundwaterExcreta"
    },
    "methodModel": {
      "@type": "Term",
      "@id": "ipcc2019"
    },
    "value": [
      0.014158123607890372
    ],
    "min": [
      0.0005899218169954322
    ],
    "max": [
      0.04306429264066655
    ],
    "sd": [
      0.010618592705917779
    ],
    "statsDefinition": "modelled",
    "methodTier": "tier 1"
  }
]
