[
  {
    "term": {
      "@id": "pErosionSoilFlux",
      "@type": "Term"
    },
    "value": [
      24.631777951201293
    ],
    "methodTier": "tier 1",
    "@type": "Emission",
    "methodModel": {
      "@type": "Term",
      "@id": "schererPfister2015"
    },
    "statsDefinition": "modelled"
  }
]
