{
  "@type": "Indicator",
  "term": {
    "@type": "Term",
    "@id": "humanNonCarcinogenicToxicity"
  },
  "methodModel": {
    "@type": "Term",
    "@id": "recipe2016Hierarchist"
  },
  "value": 1.8232340970042815
}
