{
  "@type": "Indicator",
  "term": {
    "@id": "damageToMarineEcosystemsPdfYear",
    "@type": "Term"
  },
  "methodModel": {
    "@id": "lcImpactAllEffects100Years",
    "@type": "Term"
  },
  "value": 0.7
}
