[
  {
    "term": {
      "@id": "pToDrainageWaterSoilFlux",
      "@type": "Term"
    },
    "value": [
      0.4474028901825001
    ],
    "methodTier": "tier 1",
    "@type": "Emission",
    "methodModel": {
      "@type": "Term",
      "@id": "schererPfister2015"
    },
    "statsDefinition": "modelled"
  }
]
