[
  {
    "@type": "Emission",
    "term": {
      "@type": "Term",
      "@id": "n2OToAirCropResidueDecompositionDirect"
    },
    "methodModel": {
      "@type": "Term",
      "@id": "ipcc2019"
    },
    "value": [
      0.11783304776183337
    ],
    "min": [
      0.019638841293638895
    ],
    "max": [
      0.21602725423002783
    ],
    "sd": [
      0.049097103234097224
    ],
    "statsDefinition": "modelled",
    "methodTier": "tier 1",
    "methodModelDescription": "Aggregated version"
  }
]
