{
  "@type": "Indicator",
  "term": {
    "@type": "Term",
    "@id": "humanNonCarcinogenicToxicity"
  },
  "methodModel": {
    "@type": "Term",
    "@id": "recipe2016Individualist"
  },
  "value": 1.6676147840867883
}
