{
  "@type": "Indicator",
  "term": {
    "@type": "Term",
    "@id": "damageToFreshwaterEcosystemsWaterStress"
  },
  "methodModel": {
    "@type": "Term",
    "@id": "lcImpactCertainEffectsInfinite"
  },
  "value": 8.087985326302165e-13
}
