{
  "id": "fake-cycle",
  "type": "Cycle",
  "name": "fake cycle",
  "functionalUnit": "1 ha",
  "defaultSource": {
    "id": "fake-source",
    "type": "Source"
  },
  "dataPrivate": false,
  "endDate": "2009",
  "cycleDuration": 365,
  "site": {
    "id": "fake-site",
    "type": "Site",
    "siteType": "cropland",
    "measurements": [
      {
        "term": {
          "@id": "clayContent",
          "@type": "Term",
          "units": "%",
          "termType": "measurement"
        },
        "value": [
          10
        ],
        "depthLower": 30,
        "depthUpper": 0,
        "@type": "Measurement",
        "methodClassification": "unsourced assumption"
      },
      {
        "term": {
          "@id": "sandContent",
          "@type": "Term",
          "units": "%",
          "termType": "measurement"
        },
        "value": [
          90
        ],
        "depthLower": 30,
        "depthUpper": 0,
        "@type": "Measurement",
        "methodClassification": "unsourced assumption"
      },
      {
        "term": {
          "@id": "precipitationAnnual",
          "@type": "Term"
        },
        "value": [
          1500
        ],
        "@type": "Measurement",
        "methodClassification": "unsourced assumption"
      }
    ]
  },
  "inputs": [
    {
      "term": {
        "@id": "ureaKgN",
        "@type": "Term",
        "name": "Urea (kg N)",
        "units": "kg N",
        "termType": "inorganicFertiliser"
      },
      "value": [
        70
      ],
      "@type": "Input"
    },
    {
      "term": {
        "@type": "Term",
        "name": "Manure, fresh (kg N)",
        "termType": "organicFertiliser",
        "@id": "manureFreshKgN",
        "units": "kg N"
      },
      "value": [
        100
      ],
      "@type": "Input"
    }
  ],
  "products": [
    {
      "@type": "Product",
      "term": {
        "@type": "Term",
        "name": "Excreta, dairy cattle (kg N)",
        "termType": "excreta",
        "@id": "excretaDairyCattleKgN",
        "units": "kg N"
      },
      "value": [
        100
      ]
    },
    {
      "@type": "Product",
      "term": {
        "@id": "belowGroundCropResidue",
        "@type": "Term"
      },
      "properties": [
        {
          "term": {
            "@type": "Term",
            "@id": "nitrogenContent",
            "units": "%"
          },
          "value": 0,
          "@type": "Property"
        }
      ],
      "value": [
        1360.3425
      ]
    },
    {
      "@type": "Product",
      "term": {
        "@id": "aboveGroundCropResidueTotal",
        "@type": "Term"
      },
      "properties": [
        {
          "term": {
            "@type": "Term",
            "@id": "nitrogenContent",
            "units": "%"
          },
          "value": 0.7,
          "@type": "Property"
        }
      ],
      "value": [
        3645
      ]
    },
    {
      "@type": "Product",
      "term": {
        "@type": "Term",
        "@id": "aboveGroundCropResidueLeftOnField"
      },
      "value": [
        364.5
      ]
    },
    {
      "term": {
        "@type": "Term",
        "name": "Cereals, grain",
        "termType": "crop",
        "@id": "cerealGrain",
        "units": "kg"
      },
      "value": [
        2900
      ],
      "economicValueShare": 100,
      "properties": [
        {
          "term": {
            "@id": "rootingDepth",
            "@type": "Term"
          },
          "value": 0.2,
          "@type": "Property"
        }
      ],
      "primary": true,
      "@type": "Product"
    }
  ],
  "completeness": {
    "@type": "Completeness",
    "electricityFuel": true,
    "material": true,
    "fertiliser": true,
    "other": true,
    "pesticidesAntibiotics": true,
    "soilAmendments": true,
    "water": true,
    "products": true,
    "cropResidue": true,
    "animalFeed": true,
    "transport": false,
    "excreta": true,
    "waste": true,
    "liveAnimals": true,
    "operations": true
  },
  "defaultMethodClassification": "modelled",
  "defaultMethodClassificationDescription": "description"
}
