{
  "@type": "Indicator",
  "term": {
    "@type": "Term",
    "@id": "damageToTerrestrialEcosystemsClimateChange"
  },
  "methodModel": {
    "@type": "Term",
    "@id": "lcImpactCertainEffects100Years"
  },
  "value": 8.988227179778444e-16
}
