{
  "id": "fake-id",
  "type": "Cycle",
  "site": {
    "id": "fake-id",
    "type": "Site"
  },
  "completeness": {
    "electricityFuel": true,
    "material": false,
    "fertiliser": true,
    "other": true,
    "pesticidesAntibiotics": true,
    "soilAmendments": true,
    "water": true,
    "products": true,
    "cropResidue": false,
    "animalFeed": true,
    "@type": "Completeness",
    "transport": false,
    "excreta": true,
    "waste": true,
    "liveAnimals": true,
    "operations": true
  },
  "defaultMethodClassification": "modelled",
  "functionalUnit": "1 ha",
  "endDate": "2007",
  "cycleDuration": 1096,
  "dataPrivate": true,
  "products": [
    {
      "term": {
        "@type": "Term",
        "@id": "aboveGroundCropResidueTotal"
      },
      "@type": "Product",
      "value": [
        1000
      ]
    },
    {
      "term": {
        "@type": "Term",
        "@id": "aboveGroundCropResidueIncorporated"
      },
      "@type": "Product",
      "value": [
        500
      ]
    }
  ],
  "defaultMethodClassificationDescription": "description"
}
