[
  {
    "@type": "Product",
    "term": {
      "@type": "Term",
      "@id": "meatBeefCattleColdDressedCarcassWeight",
      "name": "Meat, beef cattle (cold dressed carcass weight)",
      "termType": "animalProduct",
      "units": "kg cold dressed carcass weight"
    },
    "primary": true,
    "properties": [
      {
        "@type": "Property",
        "term": {
          "@type": "Term",
          "@id": "coldDressedCarcassWeightPerHead"
        },
        "value": 331.47632311977713,
        "statsDefinition": "regions",
        "methodModel": {
          "@type": "Term",
          "@id": "faostat2018"
        }
      }
    ]
  }
]
