{
  "id": "fake-impact",
  "type": "ImpactAssessment",
  "allocationMethod": "none required",
  "country": {
    "@id": "GADM-AUS",
    "@type": "Term",
    "name": "Australia"
  },
  "cycle": {
    "id": "fake-cycle",
    "type": "Cycle",
    "functionalUnit": "1 ha",
    "cycleDuration": 182.5,
    "products": [
      {
        "term": {
          "@type": "Term",
          "@id": "cashewKernel",
          "name": "Cashew, kernel",
          "termType": "crop",
          "units": "kg"
        },
        "value": [
          1075.5
        ],
        "economicValueShare": 96,
        "primary": true,
        "@type": "Product"
      }
    ],
    "inputs": [
      {
        "@type": "Input",
        "term": {
          "@type": "Term",
          "@id": "saplings",
          "name": "Saplings",
          "termType": "other",
          "units": "number"
        },
        "value": [
          6000
        ]
      }
    ],
    "practices": [
      {
        "@type": "Practice",
        "term": {
          "@type": "Term",
          "@id": "nurseryDuration",
          "name": "Nursery duration",
          "termType": "landUseManagement",
          "units": "Days"
        },
        "value": [
          547.5
        ]
      },
      {
        "@type": "Practice",
        "term": {
          "@type": "Term",
          "@id": "orchardBearingDuration",
          "name": "Orchard Bearing Duration",
          "termType": "landUseManagement",
          "units": "Days"
        },
        "value": [
          6022.5
        ]
      },
      {
        "@type": "Practice",
        "term": {
          "@type": "Term",
          "@id": "orchardDensity",
          "name": "Orchard density",
          "termType": "landUseManagement",
          "units": "Number"
        },
        "value": [
          284
        ]
      },
      {
        "@type": "Practice",
        "term": {
          "@type": "Term",
          "@id": "orchardDuration",
          "name": "Orchard Duration",
          "termType": "landUseManagement",
          "units": "Days"
        },
        "value": [
          7300
        ]
      },
      {
        "@type": "Practice",
        "term": {
          "@type": "Term",
          "@id": "rotationDuration",
          "name": "Rotation Duration",
          "termType": "landUseManagement",
          "units": "Days"
        },
        "value": [
          8030
        ]
      }
    ],
    "defaultMethodClassificationDescription": "description"
  },
  "endDate": "2010",
  "functionalUnitQuantity": 1,
  "product": {
    "@type": "Term",
    "@id": "cashewKernel",
    "name": "Cashew, kernel",
    "termType": "crop",
    "units": "kg"
  },
  "source": {
    "id": "fake-source",
    "type": "Source"
  },
  "dataPrivate": false
}
