{
  "id": "fake-cycle",
  "type": "Cycle",
  "site": {
    "id": "fake-site",
    "type": "Site",
    "siteType": "cropland"
  },
  "name": "fake cycle",
  "functionalUnit": "1 ha",
  "dataPrivate": true,
  "endDate": "2009",
  "cycleDuration": 365,
  "products": [
    {
      "term": {
        "@type": "Term",
        "termType": "crop",
        "@id": "wheatGrain"
      },
      "primary": true,
      "@type": "Product"
    }
  ],
  "completeness": {
    "@type": "Completeness",
    "electricityFuel": true,
    "material": true,
    "fertiliser": true,
    "other": true,
    "pesticidesAntibiotics": true,
    "soilAmendments": true,
    "water": true,
    "products": true,
    "cropResidue": true,
    "animalFeed": true,
    "transport": false,
    "excreta": true,
    "waste": true,
    "liveAnimals": true,
    "operations": true
  },
  "defaultMethodClassification": "modelled",
  "defaultMethodClassificationDescription": "description"
}
