[
  {
    "term": {
      "@id": "n2OToAirExcretaDirect",
      "@type": "Term"
    },
    "value": [
      1.0997751124437782
    ],
    "methodTier": "tier 1",
    "@type": "Emission",
    "methodModel": {
      "@type": "Term",
      "@id": "ipcc2006"
    },
    "statsDefinition": "modelled"
  }
]
