{
  "@type": "Indicator",
  "term": {
    "@type": "Term",
    "@id": "damageToHumanHealthWaterStress"
  },
  "methodModel": {
    "@type": "Term",
    "@id": "lcImpactCertainEffectsInfinite"
  },
  "value": 7.07996887368732e-8
}
