{
  "@type": "Indicator",
  "term": {
    "@type": "Term",
    "@id": "damageToTerrestrialEcosystemsPhotochemicalOzoneFormation"
  },
  "methodModel": {
    "@type": "Term",
    "@id": "lcImpactCertainEffects100Years"
  },
  "value": 4.395746859532069e-19
}
