{
  "id": "fake-impact",
  "type": "ImpactAssessment",
  "allocationMethod": "none required",
  "country": {
    "@id": "GADM-AUT",
    "@type": "Term",
    "name": "Austria"
  },
  "endDate": "2010",
  "functionalUnitQuantity": 1,
  "product": {
    "@type": "Term",
    "name": "Cereals, grain",
    "termType": "crop",
    "@id": "cerealGrain",
    "units": "kg"
  },
  "source": {
    "id": "fake-source",
    "type": "Source"
  },
  "dataPrivate": false,
  "emissionsResourceUse": [
    {
      "@type": "Indicator",
      "term": {
        "@type": "Term",
        "@id": "freshwaterWithdrawalsDuringCycle",
        "name": "Freshwater withdrawals, during Cycle",
        "termType": "resourceUse",
        "units": "L"
      },
      "value": 360,
      "statsDefinition": "modelled"
    }
  ]
}
