{
  "id": "fake-cycle",
  "type": "Cycle",
  "name": "Rice, grain (paddy) - Gambia - 2018",
  "site": {
    "id": "fake-site",
    "type": "Site",
    "country": {
      "@type": "Term",
      "name": "Gambia",
      "@id": "GADM-GMB"
    }
  },
  "defaultSource": {
    "id": "fake-source",
    "type": "Source"
  },
  "endDate": "2018",
  "functionalUnit": "1 ha",
  "cycleDuration": 100,
  "dataPrivate": true,
  "completeness": {
    "electricityFuel": false,
    "material": false,
    "fertiliser": true,
    "other": false,
    "pesticidesAntibiotics": true,
    "soilAmendments": true,
    "water": false,
    "products": true,
    "cropResidue": false,
    "animalFeed": true,
    "@type": "Completeness",
    "transport": false,
    "excreta": true,
    "waste": true,
    "liveAnimals": true,
    "operations": true
  },
  "defaultMethodClassification": "modelled",
  "defaultMethodClassificationDescription": "description"
}
