{
  "id": "fake-impact",
  "type": "ImpactAssessment",
  "allocationMethod": "none required",
  "country": {
    "@id": "GADM-AUS",
    "@type": "Term",
    "name": "Australia",
    "termType": "region"
  },
  "cycle": {
    "id": "fake-cycle",
    "type": "Cycle",
    "products": [
      {
        "term": {
          "@type": "Term",
          "name": "Cereals, grain",
          "termType": "crop",
          "@id": "cerealGrain",
          "units": "kg"
        },
        "description": "Wheat, grain; Barley, grain",
        "value": [
          2900
        ],
        "economicValueShare": 100,
        "primary": true,
        "@type": "Product"
      }
    ],
    "completeness": {
      "@type": "Completeness",
      "electricityFuel": true,
      "material": true,
      "fertiliser": true,
      "other": true,
      "pesticidesAntibiotics": true,
      "soilAmendments": true,
      "water": true,
      "products": true,
      "cropResidue": true,
      "animalFeed": true,
      "transport": false,
      "excreta": true,
      "waste": true,
      "liveAnimals": true,
      "operations": true
    },
    "defaultMethodClassificationDescription": "description"
  },
  "endDate": "2010",
  "functionalUnitQuantity": 1,
  "product": {
    "@type": "Term",
    "name": "Cereals, grain",
    "termType": "crop",
    "@id": "cerealGrain",
    "units": "kg"
  },
  "source": {
    "id": "fake-source",
    "type": "Source"
  },
  "dataPrivate": false
}
