[
  {
    "term": {
      "@id": "noxToAirSoilFlux",
      "@type": "Term"
    },
    "value": [
      2.2409685617479997
    ],
    "methodTier": "tier 1",
    "@type": "Emission",
    "methodModel": {
      "@type": "Term",
      "@id": "stehfestBouwman2006GisImplementation"
    },
    "statsDefinition": "modelled"
  }
]
