[
  {
    "@type": "Emission",
    "term": {
      "@type": "Term",
      "@id": "no3ToGroundwaterCropResidueDecomposition"
    },
    "methodModel": {
      "@type": "Term",
      "@id": "ipcc2019"
    },
    "value": [
      0
    ],
    "min": [
      0
    ],
    "max": [
      0
    ],
    "sd": [
      0
    ],
    "statsDefinition": "modelled",
    "methodTier": "tier 1"
  }
]
