{
  "id": "fake-cycle",
  "type": "Cycle",
  "site": {
    "id": "fake-site",
    "type": "Site"
  },
  "name": "fake cycle",
  "functionalUnit": "relative",
  "defaultSource": {
    "id": "fake-source",
    "type": "Source"
  },
  "dataPrivate": false,
  "endDate": "2009",
  "cycleDuration": 365,
  "inputs": [
    {
      "@type": "Input",
      "term": {
        "@type": "Term",
        "@id": "excretaPoultryKgN",
        "termType": "excreta",
        "units": "kg N"
      },
      "value": [
        0.0133266158484211
      ],
      "statsDefinition": "modelled"
    }
  ],
  "practices": [
    {
      "@type": "Practice",
      "term": {
        "@id": "compostingStaticPileWithoutRunoffLeachingContainment",
        "name": "Composting, static pile, without runoff/leaching containment",
        "@type": "Term",
        "termType": "excretaManagement"
      }
    }
  ],
  "completeness": {
    "@type": "Completeness",
    "electricityFuel": true,
    "material": true,
    "fertiliser": true,
    "other": true,
    "pesticidesAntibiotics": true,
    "soilAmendments": true,
    "water": true,
    "products": true,
    "cropResidue": true,
    "animalFeed": true,
    "transport": false,
    "excreta": true,
    "waste": true,
    "liveAnimals": true,
    "operations": true
  },
  "defaultMethodClassification": "modelled",
  "defaultMethodClassificationDescription": "description"
}
