[
  {
    "@type": "Emission",
    "term": {
      "@type": "Term",
      "@id": "noxToAirExcreta"
    },
    "methodModel": {
      "@type": "Term",
      "@id": "dammgen2009"
    },
    "value": [
      0.000028548471132128473
    ],
    "methodTier": "tier 1",
    "statsDefinition": "modelled"
  }
]
