{
  "@type": "Measurement",
  "term": {
    "@type": "Term",
    "@id": "slowFlowingWater"
  },
  "statsDefinition": "modelled",
  "methodClassification": "modelled using other physical measurements",
  "value": [
    1
  ]
}
