{
  "id": "fake-impact",
  "type": "ImpactAssessment",
  "allocationMethod": "none required",
  "country": {
    "@id": "GADM-AUS",
    "@type": "Term",
    "name": "Australia"
  },
  "cycle": {
    "id": "fake-cycle",
    "type": "Cycle",
    "products": [
      {
        "@type": "Product",
        "term": {
          "@id": "wheatGrain",
          "@type": "Term"
        }
      }
    ],
    "practices": [
      {
        "@type": "Practice",
        "term": {
          "@id": "organic",
          "@type": "Term",
          "name": "Organic",
          "termType": "standardsLabels"
        }
      }
    ],
    "defaultMethodClassificationDescription": "description"
  },
  "site": {
    "id": "fake-site",
    "type": "Site"
  },
  "endDate": "2010",
  "functionalUnitQuantity": 1,
  "product": {
    "@id": "wheatGrain",
    "@type": "Term"
  },
  "source": {
    "id": "fake-source",
    "type": "Source"
  },
  "dataPrivate": false
}
