[
  {
    "@type": "Emission",
    "term": {
      "@type": "Term",
      "@id": "nh3ToAirInputsProduction"
    },
    "methodModel": {
      "@type": "Term",
      "@id": "ecoinventV3"
    },
    "value": [
      0.00015367181950407183
    ],
    "methodTier": "background",
    "inputs": [
      {
        "@type": "Term",
        "name": "Diesel",
        "termType": "fuel",
        "@id": "diesel",
        "units": "kg"
      }
    ],
    "operation": {
      "@type": "Term",
      "name": "Ploughing, machine unspecified",
      "termType": "operation",
      "@id": "ploughingMachineUnspecified",
      "units": "hour"
    }
  },
  {
    "@type": "Emission",
    "term": {
      "@type": "Term",
      "@id": "co2ToAirInputsProduction"
    },
    "methodModel": {
      "@type": "Term",
      "@id": "ecoinventV3"
    },
    "value": [
      4.544259639990865
    ],
    "methodTier": "background",
    "inputs": [
      {
        "@type": "Term",
        "name": "Diesel",
        "termType": "fuel",
        "@id": "diesel",
        "units": "kg"
      }
    ],
    "operation": {
      "@type": "Term",
      "name": "Ploughing, machine unspecified",
      "termType": "operation",
      "@id": "ploughingMachineUnspecified",
      "units": "hour"
    }
  },
  {
    "@type": "Emission",
    "term": {
      "@type": "Term",
      "@id": "n2OToAirInputsProduction"
    },
    "methodModel": {
      "@type": "Term",
      "@id": "ecoinventV3"
    },
    "value": [
      0.00008471740579833985
    ],
    "methodTier": "background",
    "inputs": [
      {
        "@type": "Term",
        "name": "Diesel",
        "termType": "fuel",
        "@id": "diesel",
        "units": "kg"
      }
    ],
    "operation": {
      "@type": "Term",
      "name": "Ploughing, machine unspecified",
      "termType": "operation",
      "@id": "ploughingMachineUnspecified",
      "units": "hour"
    }
  },
  {
    "@type": "Emission",
    "term": {
      "@type": "Term",
      "@id": "ch4ToAirInputsProductionFossil"
    },
    "methodModel": {
      "@type": "Term",
      "@id": "ecoinventV3"
    },
    "value": [
      0.01514168620505421
    ],
    "methodTier": "background",
    "inputs": [
      {
        "@type": "Term",
        "name": "Diesel",
        "termType": "fuel",
        "@id": "diesel",
        "units": "kg"
      }
    ],
    "operation": {
      "@type": "Term",
      "name": "Ploughing, machine unspecified",
      "termType": "operation",
      "@id": "ploughingMachineUnspecified",
      "units": "hour"
    }
  },
  {
    "@type": "Emission",
    "term": {
      "@type": "Term",
      "@id": "ch4ToAirInputsProductionNonFossil"
    },
    "methodModel": {
      "@type": "Term",
      "@id": "ecoinventV3"
    },
    "value": [
      0.00008097872935260421
    ],
    "methodTier": "background",
    "inputs": [
      {
        "@type": "Term",
        "name": "Diesel",
        "termType": "fuel",
        "@id": "diesel",
        "units": "kg"
      }
    ],
    "operation": {
      "@type": "Term",
      "name": "Ploughing, machine unspecified",
      "termType": "operation",
      "@id": "ploughingMachineUnspecified",
      "units": "hour"
    }
  },
  {
    "@type": "Emission",
    "term": {
      "@type": "Term",
      "@id": "noxToAirInputsProduction"
    },
    "methodModel": {
      "@type": "Term",
      "@id": "ecoinventV3"
    },
    "value": [
      0.015874690493350704
    ],
    "methodTier": "background",
    "inputs": [
      {
        "@type": "Term",
        "name": "Diesel",
        "termType": "fuel",
        "@id": "diesel",
        "units": "kg"
      }
    ],
    "operation": {
      "@type": "Term",
      "name": "Ploughing, machine unspecified",
      "termType": "operation",
      "@id": "ploughingMachineUnspecified",
      "units": "hour"
    }
  },
  {
    "@type": "Emission",
    "term": {
      "@type": "Term",
      "@id": "so2ToAirInputsProduction"
    },
    "methodModel": {
      "@type": "Term",
      "@id": "ecoinventV3"
    },
    "value": [
      0.03461798101904912
    ],
    "methodTier": "background",
    "inputs": [
      {
        "@type": "Term",
        "name": "Diesel",
        "termType": "fuel",
        "@id": "diesel",
        "units": "kg"
      }
    ],
    "operation": {
      "@type": "Term",
      "name": "Ploughing, machine unspecified",
      "termType": "operation",
      "@id": "ploughingMachineUnspecified",
      "units": "hour"
    }
  },
  {
    "@type": "Emission",
    "term": {
      "@type": "Term",
      "@id": "bromochlorodifluoromethaneToAirInputsProduction"
    },
    "methodModel": {
      "@type": "Term",
      "@id": "ecoinventV3"
    },
    "value": [
      2.6212043623447026e-9
    ],
    "methodTier": "background",
    "inputs": [
      {
        "@type": "Term",
        "name": "Diesel",
        "termType": "fuel",
        "@id": "diesel",
        "units": "kg"
      }
    ],
    "operation": {
      "@type": "Term",
      "name": "Ploughing, machine unspecified",
      "termType": "operation",
      "@id": "ploughingMachineUnspecified",
      "units": "hour"
    }
  },
  {
    "@type": "Emission",
    "term": {
      "@type": "Term",
      "@id": "chlorodifluoromethaneToAirInputsProduction"
    },
    "methodModel": {
      "@type": "Term",
      "@id": "ecoinventV3"
    },
    "value": [
      6.938397635017814e-8
    ],
    "methodTier": "background",
    "inputs": [
      {
        "@type": "Term",
        "name": "Diesel",
        "termType": "fuel",
        "@id": "diesel",
        "units": "kg"
      }
    ],
    "operation": {
      "@type": "Term",
      "name": "Ploughing, machine unspecified",
      "termType": "operation",
      "@id": "ploughingMachineUnspecified",
      "units": "hour"
    }
  },
  {
    "@type": "Emission",
    "term": {
      "@type": "Term",
      "@id": "dichlorodifluoromethaneToAirInputsProduction"
    },
    "methodModel": {
      "@type": "Term",
      "@id": "ecoinventV3"
    },
    "value": [
      7.154861277402798e-11
    ],
    "methodTier": "background",
    "inputs": [
      {
        "@type": "Term",
        "name": "Diesel",
        "termType": "fuel",
        "@id": "diesel",
        "units": "kg"
      }
    ],
    "operation": {
      "@type": "Term",
      "name": "Ploughing, machine unspecified",
      "termType": "operation",
      "@id": "ploughingMachineUnspecified",
      "units": "hour"
    }
  },
  {
    "@type": "Emission",
    "term": {
      "@type": "Term",
      "@id": "112TrichlorotrifluoroethaneToAirInputsProduction"
    },
    "methodModel": {
      "@type": "Term",
      "@id": "ecoinventV3"
    },
    "value": [
      1.1426998112953684e-10
    ],
    "methodTier": "background",
    "inputs": [
      {
        "@type": "Term",
        "name": "Diesel",
        "termType": "fuel",
        "@id": "diesel",
        "units": "kg"
      }
    ],
    "operation": {
      "@type": "Term",
      "name": "Ploughing, machine unspecified",
      "termType": "operation",
      "@id": "ploughingMachineUnspecified",
      "units": "hour"
    }
  },
  {
    "@type": "Emission",
    "term": {
      "@type": "Term",
      "@id": "11DichlorotetrafluoroethaneToAirInputsProduction"
    },
    "methodModel": {
      "@type": "Term",
      "@id": "ecoinventV3"
    },
    "value": [
      1.671589188761258e-8
    ],
    "methodTier": "background",
    "inputs": [
      {
        "@type": "Term",
        "name": "Diesel",
        "termType": "fuel",
        "@id": "diesel",
        "units": "kg"
      }
    ],
    "operation": {
      "@type": "Term",
      "name": "Ploughing, machine unspecified",
      "termType": "operation",
      "@id": "ploughingMachineUnspecified",
      "units": "hour"
    }
  },
  {
    "@type": "Emission",
    "term": {
      "@type": "Term",
      "@id": "nh3ToAirInputsProduction"
    },
    "methodModel": {
      "@type": "Term",
      "@id": "ecoinventV3"
    },
    "value": [
      0.00018860066213067237
    ],
    "methodTier": "background",
    "inputs": [
      {
        "@type": "Term",
        "name": "Diesel",
        "termType": "fuel",
        "@id": "diesel",
        "units": "kg"
      }
    ],
    "operation": {
      "@type": "Term",
      "name": "Harvesting, machine unspecified",
      "termType": "operation",
      "@id": "harvestingMachineUnspecified",
      "units": "hour"
    }
  },
  {
    "@type": "Emission",
    "term": {
      "@type": "Term",
      "@id": "co2ToAirInputsProduction"
    },
    "methodModel": {
      "@type": "Term",
      "@id": "ecoinventV3"
    },
    "value": [
      5.5771473244855985
    ],
    "methodTier": "background",
    "inputs": [
      {
        "@type": "Term",
        "name": "Diesel",
        "termType": "fuel",
        "@id": "diesel",
        "units": "kg"
      }
    ],
    "operation": {
      "@type": "Term",
      "name": "Harvesting, machine unspecified",
      "termType": "operation",
      "@id": "harvestingMachineUnspecified",
      "units": "hour"
    }
  },
  {
    "@type": "Emission",
    "term": {
      "@type": "Term",
      "@id": "n2OToAirInputsProduction"
    },
    "methodModel": {
      "@type": "Term",
      "@id": "ecoinventV3"
    },
    "value": [
      0.00010397325208436407
    ],
    "methodTier": "background",
    "inputs": [
      {
        "@type": "Term",
        "name": "Diesel",
        "termType": "fuel",
        "@id": "diesel",
        "units": "kg"
      }
    ],
    "operation": {
      "@type": "Term",
      "name": "Harvesting, machine unspecified",
      "termType": "operation",
      "@id": "harvestingMachineUnspecified",
      "units": "hour"
    }
  },
  {
    "@type": "Emission",
    "term": {
      "@type": "Term",
      "@id": "ch4ToAirInputsProductionFossil"
    },
    "methodModel": {
      "@type": "Term",
      "@id": "ecoinventV3"
    },
    "value": [
      0.018583316402864765
    ],
    "methodTier": "background",
    "inputs": [
      {
        "@type": "Term",
        "name": "Diesel",
        "termType": "fuel",
        "@id": "diesel",
        "units": "kg"
      }
    ],
    "operation": {
      "@type": "Term",
      "name": "Harvesting, machine unspecified",
      "termType": "operation",
      "@id": "harvestingMachineUnspecified",
      "units": "hour"
    }
  },
  {
    "@type": "Emission",
    "term": {
      "@type": "Term",
      "@id": "ch4ToAirInputsProductionNonFossil"
    },
    "methodModel": {
      "@type": "Term",
      "@id": "ecoinventV3"
    },
    "value": [
      0.00009938479301988736
    ],
    "methodTier": "background",
    "inputs": [
      {
        "@type": "Term",
        "name": "Diesel",
        "termType": "fuel",
        "@id": "diesel",
        "units": "kg"
      }
    ],
    "operation": {
      "@type": "Term",
      "name": "Harvesting, machine unspecified",
      "termType": "operation",
      "@id": "harvestingMachineUnspecified",
      "units": "hour"
    }
  },
  {
    "@type": "Emission",
    "term": {
      "@type": "Term",
      "@id": "noxToAirInputsProduction"
    },
    "methodModel": {
      "@type": "Term",
      "@id": "ecoinventV3"
    },
    "value": [
      0.019482928931456436
    ],
    "methodTier": "background",
    "inputs": [
      {
        "@type": "Term",
        "name": "Diesel",
        "termType": "fuel",
        "@id": "diesel",
        "units": "kg"
      }
    ],
    "operation": {
      "@type": "Term",
      "name": "Harvesting, machine unspecified",
      "termType": "operation",
      "@id": "harvestingMachineUnspecified",
      "units": "hour"
    }
  },
  {
    "@type": "Emission",
    "term": {
      "@type": "Term",
      "@id": "so2ToAirInputsProduction"
    },
    "methodModel": {
      "@type": "Term",
      "@id": "ecoinventV3"
    },
    "value": [
      0.042486476459314096
    ],
    "methodTier": "background",
    "inputs": [
      {
        "@type": "Term",
        "name": "Diesel",
        "termType": "fuel",
        "@id": "diesel",
        "units": "kg"
      }
    ],
    "operation": {
      "@type": "Term",
      "name": "Harvesting, machine unspecified",
      "termType": "operation",
      "@id": "harvestingMachineUnspecified",
      "units": "hour"
    }
  },
  {
    "@type": "Emission",
    "term": {
      "@type": "Term",
      "@id": "bromochlorodifluoromethaneToAirInputsProduction"
    },
    "methodModel": {
      "@type": "Term",
      "@id": "ecoinventV3"
    },
    "value": [
      3.21699111726154e-9
    ],
    "methodTier": "background",
    "inputs": [
      {
        "@type": "Term",
        "name": "Diesel",
        "termType": "fuel",
        "@id": "diesel",
        "units": "kg"
      }
    ],
    "operation": {
      "@type": "Term",
      "name": "Harvesting, machine unspecified",
      "termType": "operation",
      "@id": "harvestingMachineUnspecified",
      "units": "hour"
    }
  },
  {
    "@type": "Emission",
    "term": {
      "@type": "Term",
      "@id": "chlorodifluoromethaneToAirInputsProduction"
    },
    "methodModel": {
      "@type": "Term",
      "@id": "ecoinventV3"
    },
    "value": [
      8.515461014994863e-8
    ],
    "methodTier": "background",
    "inputs": [
      {
        "@type": "Term",
        "name": "Diesel",
        "termType": "fuel",
        "@id": "diesel",
        "units": "kg"
      }
    ],
    "operation": {
      "@type": "Term",
      "name": "Harvesting, machine unspecified",
      "termType": "operation",
      "@id": "harvestingMachineUnspecified",
      "units": "hour"
    }
  },
  {
    "@type": "Emission",
    "term": {
      "@type": "Term",
      "@id": "dichlorodifluoromethaneToAirInputsProduction"
    },
    "methodModel": {
      "@type": "Term",
      "@id": "ecoinventV3"
    },
    "value": [
      8.781125770008343e-11
    ],
    "methodTier": "background",
    "inputs": [
      {
        "@type": "Term",
        "name": "Diesel",
        "termType": "fuel",
        "@id": "diesel",
        "units": "kg"
      }
    ],
    "operation": {
      "@type": "Term",
      "name": "Harvesting, machine unspecified",
      "termType": "operation",
      "@id": "harvestingMachineUnspecified",
      "units": "hour"
    }
  },
  {
    "@type": "Emission",
    "term": {
      "@type": "Term",
      "@id": "112TrichlorotrifluoroethaneToAirInputsProduction"
    },
    "methodModel": {
      "@type": "Term",
      "@id": "ecoinventV3"
    },
    "value": [
      1.4024298125863628e-10
    ],
    "methodTier": "background",
    "inputs": [
      {
        "@type": "Term",
        "name": "Diesel",
        "termType": "fuel",
        "@id": "diesel",
        "units": "kg"
      }
    ],
    "operation": {
      "@type": "Term",
      "name": "Harvesting, machine unspecified",
      "termType": "operation",
      "@id": "harvestingMachineUnspecified",
      "units": "hour"
    }
  },
  {
    "@type": "Emission",
    "term": {
      "@type": "Term",
      "@id": "11DichlorotetrafluoroethaneToAirInputsProduction"
    },
    "methodModel": {
      "@type": "Term",
      "@id": "ecoinventV3"
    },
    "value": [
      2.0515331231728744e-8
    ],
    "methodTier": "background",
    "inputs": [
      {
        "@type": "Term",
        "name": "Diesel",
        "termType": "fuel",
        "@id": "diesel",
        "units": "kg"
      }
    ],
    "operation": {
      "@type": "Term",
      "name": "Harvesting, machine unspecified",
      "termType": "operation",
      "@id": "harvestingMachineUnspecified",
      "units": "hour"
    }
  },
  {
    "@type": "Emission",
    "term": {
      "@type": "Term",
      "@id": "nh3ToAirInputsProduction"
    },
    "methodModel": {
      "@type": "Term",
      "@id": "ecoinventV3"
    },
    "value": [
      0.24893873614418097
    ],
    "methodTier": "background",
    "inputs": [
      {
        "@type": "Term",
        "name": "Urea (kg N)",
        "termType": "inorganicFertiliser",
        "@id": "ureaKgN",
        "units": "kg N"
      }
    ]
  },
  {
    "@type": "Emission",
    "term": {
      "@type": "Term",
      "@id": "co2ToAirInputsProduction"
    },
    "methodModel": {
      "@type": "Term",
      "@id": "ecoinventV3"
    },
    "value": [
      222.5759125168866
    ],
    "methodTier": "background",
    "inputs": [
      {
        "@type": "Term",
        "name": "Urea (kg N)",
        "termType": "inorganicFertiliser",
        "@id": "ureaKgN",
        "units": "kg N"
      }
    ]
  },
  {
    "@type": "Emission",
    "term": {
      "@type": "Term",
      "@id": "n2OToAirInputsProduction"
    },
    "methodModel": {
      "@type": "Term",
      "@id": "ecoinventV3"
    },
    "value": [
      0.004247566280013016
    ],
    "methodTier": "background",
    "inputs": [
      {
        "@type": "Term",
        "name": "Urea (kg N)",
        "termType": "inorganicFertiliser",
        "@id": "ureaKgN",
        "units": "kg N"
      }
    ]
  },
  {
    "@type": "Emission",
    "term": {
      "@type": "Term",
      "@id": "ch4ToAirInputsProductionFossil"
    },
    "methodModel": {
      "@type": "Term",
      "@id": "ecoinventV3"
    },
    "value": [
      0.5941186643803611
    ],
    "methodTier": "background",
    "inputs": [
      {
        "@type": "Term",
        "name": "Urea (kg N)",
        "termType": "inorganicFertiliser",
        "@id": "ureaKgN",
        "units": "kg N"
      }
    ]
  },
  {
    "@type": "Emission",
    "term": {
      "@type": "Term",
      "@id": "ch4ToAirInputsProductionNonFossil"
    },
    "methodModel": {
      "@type": "Term",
      "@id": "ecoinventV3"
    },
    "value": [
      0.0032772948702743544
    ],
    "methodTier": "background",
    "inputs": [
      {
        "@type": "Term",
        "name": "Urea (kg N)",
        "termType": "inorganicFertiliser",
        "@id": "ureaKgN",
        "units": "kg N"
      }
    ]
  },
  {
    "@type": "Emission",
    "term": {
      "@type": "Term",
      "@id": "noxToAirInputsProduction"
    },
    "methodModel": {
      "@type": "Term",
      "@id": "ecoinventV3"
    },
    "value": [
      0.3169120453096299
    ],
    "methodTier": "background",
    "inputs": [
      {
        "@type": "Term",
        "name": "Urea (kg N)",
        "termType": "inorganicFertiliser",
        "@id": "ureaKgN",
        "units": "kg N"
      }
    ]
  },
  {
    "@type": "Emission",
    "term": {
      "@type": "Term",
      "@id": "so2ToAirInputsProduction"
    },
    "methodModel": {
      "@type": "Term",
      "@id": "ecoinventV3"
    },
    "value": [
      0.5764401858857761
    ],
    "methodTier": "background",
    "inputs": [
      {
        "@type": "Term",
        "name": "Urea (kg N)",
        "termType": "inorganicFertiliser",
        "@id": "ureaKgN",
        "units": "kg N"
      }
    ]
  },
  {
    "@type": "Emission",
    "term": {
      "@type": "Term",
      "@id": "bromochlorodifluoromethaneToAirInputsProduction"
    },
    "methodModel": {
      "@type": "Term",
      "@id": "ecoinventV3"
    },
    "value": [
      0.0000012468259007786278
    ],
    "methodTier": "background",
    "inputs": [
      {
        "@type": "Term",
        "name": "Urea (kg N)",
        "termType": "inorganicFertiliser",
        "@id": "ureaKgN",
        "units": "kg N"
      }
    ]
  },
  {
    "@type": "Emission",
    "term": {
      "@type": "Term",
      "@id": "chlorodifluoromethaneToAirInputsProduction"
    },
    "methodModel": {
      "@type": "Term",
      "@id": "ecoinventV3"
    },
    "value": [
      0.000005319242211824692
    ],
    "methodTier": "background",
    "inputs": [
      {
        "@type": "Term",
        "name": "Urea (kg N)",
        "termType": "inorganicFertiliser",
        "@id": "ureaKgN",
        "units": "kg N"
      }
    ]
  },
  {
    "@type": "Emission",
    "term": {
      "@type": "Term",
      "@id": "dichlorodifluoromethaneToAirInputsProduction"
    },
    "methodModel": {
      "@type": "Term",
      "@id": "ecoinventV3"
    },
    "value": [
      1.4763808014983152e-8
    ],
    "methodTier": "background",
    "inputs": [
      {
        "@type": "Term",
        "name": "Urea (kg N)",
        "termType": "inorganicFertiliser",
        "@id": "ureaKgN",
        "units": "kg N"
      }
    ]
  },
  {
    "@type": "Emission",
    "term": {
      "@type": "Term",
      "@id": "112TrichlorotrifluoroethaneToAirInputsProduction"
    },
    "methodModel": {
      "@type": "Term",
      "@id": "ecoinventV3"
    },
    "value": [
      2.5298251642558625e-8
    ],
    "methodTier": "background",
    "inputs": [
      {
        "@type": "Term",
        "name": "Urea (kg N)",
        "termType": "inorganicFertiliser",
        "@id": "ureaKgN",
        "units": "kg N"
      }
    ]
  },
  {
    "@type": "Emission",
    "term": {
      "@type": "Term",
      "@id": "11DichlorotetrafluoroethaneToAirInputsProduction"
    },
    "methodModel": {
      "@type": "Term",
      "@id": "ecoinventV3"
    },
    "value": [
      6.634992290587558e-7
    ],
    "methodTier": "background",
    "inputs": [
      {
        "@type": "Term",
        "name": "Urea (kg N)",
        "termType": "inorganicFertiliser",
        "@id": "ureaKgN",
        "units": "kg N"
      }
    ]
  },
  {
    "@type": "Emission",
    "term": {
      "@type": "Term",
      "@id": "nh3ToAirInputsProduction"
    },
    "methodModel": {
      "@type": "Term",
      "@id": "ecoinventV3"
    },
    "value": [
      0.0026120551649811987
    ],
    "methodTier": "background",
    "inputs": [
      {
        "@type": "Term",
        "name": "Herbicide unspecified (AI)",
        "termType": "pesticideAI",
        "@id": "herbicideUnspecifiedAi",
        "units": "kg active ingredient"
      }
    ]
  },
  {
    "@type": "Emission",
    "term": {
      "@type": "Term",
      "@id": "co2ToAirInputsProduction"
    },
    "methodModel": {
      "@type": "Term",
      "@id": "ecoinventV3"
    },
    "value": [
      16.669134468319534
    ],
    "methodTier": "background",
    "inputs": [
      {
        "@type": "Term",
        "name": "Herbicide unspecified (AI)",
        "termType": "pesticideAI",
        "@id": "herbicideUnspecifiedAi",
        "units": "kg active ingredient"
      }
    ]
  },
  {
    "@type": "Emission",
    "term": {
      "@type": "Term",
      "@id": "n2OToAirInputsProduction"
    },
    "methodModel": {
      "@type": "Term",
      "@id": "ecoinventV3"
    },
    "value": [
      0.002981142644460389
    ],
    "methodTier": "background",
    "inputs": [
      {
        "@type": "Term",
        "name": "Herbicide unspecified (AI)",
        "termType": "pesticideAI",
        "@id": "herbicideUnspecifiedAi",
        "units": "kg active ingredient"
      }
    ]
  },
  {
    "@type": "Emission",
    "term": {
      "@type": "Term",
      "@id": "ch4ToAirInputsProductionFossil"
    },
    "methodModel": {
      "@type": "Term",
      "@id": "ecoinventV3"
    },
    "value": [
      0.07159258438732675
    ],
    "methodTier": "background",
    "inputs": [
      {
        "@type": "Term",
        "name": "Herbicide unspecified (AI)",
        "termType": "pesticideAI",
        "@id": "herbicideUnspecifiedAi",
        "units": "kg active ingredient"
      }
    ]
  },
  {
    "@type": "Emission",
    "term": {
      "@type": "Term",
      "@id": "ch4ToAirInputsProductionNonFossil"
    },
    "methodModel": {
      "@type": "Term",
      "@id": "ecoinventV3"
    },
    "value": [
      0.0006995857792938462
    ],
    "methodTier": "background",
    "inputs": [
      {
        "@type": "Term",
        "name": "Herbicide unspecified (AI)",
        "termType": "pesticideAI",
        "@id": "herbicideUnspecifiedAi",
        "units": "kg active ingredient"
      }
    ]
  },
  {
    "@type": "Emission",
    "term": {
      "@type": "Term",
      "@id": "noxToAirInputsProduction"
    },
    "methodModel": {
      "@type": "Term",
      "@id": "ecoinventV3"
    },
    "value": [
      0.04612077020583172
    ],
    "methodTier": "background",
    "inputs": [
      {
        "@type": "Term",
        "name": "Herbicide unspecified (AI)",
        "termType": "pesticideAI",
        "@id": "herbicideUnspecifiedAi",
        "units": "kg active ingredient"
      }
    ]
  },
  {
    "@type": "Emission",
    "term": {
      "@type": "Term",
      "@id": "so2ToAirInputsProduction"
    },
    "methodModel": {
      "@type": "Term",
      "@id": "ecoinventV3"
    },
    "value": [
      0.12103218982247063
    ],
    "methodTier": "background",
    "inputs": [
      {
        "@type": "Term",
        "name": "Herbicide unspecified (AI)",
        "termType": "pesticideAI",
        "@id": "herbicideUnspecifiedAi",
        "units": "kg active ingredient"
      }
    ]
  },
  {
    "@type": "Emission",
    "term": {
      "@type": "Term",
      "@id": "bromochlorodifluoromethaneToAirInputsProduction"
    },
    "methodModel": {
      "@type": "Term",
      "@id": "ecoinventV3"
    },
    "value": [
      4.577182025290384e-8
    ],
    "methodTier": "background",
    "inputs": [
      {
        "@type": "Term",
        "name": "Herbicide unspecified (AI)",
        "termType": "pesticideAI",
        "@id": "herbicideUnspecifiedAi",
        "units": "kg active ingredient"
      }
    ]
  },
  {
    "@type": "Emission",
    "term": {
      "@type": "Term",
      "@id": "chlorodifluoromethaneToAirInputsProduction"
    },
    "methodModel": {
      "@type": "Term",
      "@id": "ecoinventV3"
    },
    "value": [
      8.861288472210335e-7
    ],
    "methodTier": "background",
    "inputs": [
      {
        "@type": "Term",
        "name": "Herbicide unspecified (AI)",
        "termType": "pesticideAI",
        "@id": "herbicideUnspecifiedAi",
        "units": "kg active ingredient"
      }
    ]
  },
  {
    "@type": "Emission",
    "term": {
      "@type": "Term",
      "@id": "dichlorodifluoromethaneToAirInputsProduction"
    },
    "methodModel": {
      "@type": "Term",
      "@id": "ecoinventV3"
    },
    "value": [
      0.000002137649202608855
    ],
    "methodTier": "background",
    "inputs": [
      {
        "@type": "Term",
        "name": "Herbicide unspecified (AI)",
        "termType": "pesticideAI",
        "@id": "herbicideUnspecifiedAi",
        "units": "kg active ingredient"
      }
    ]
  },
  {
    "@type": "Emission",
    "term": {
      "@type": "Term",
      "@id": "112TrichlorotrifluoroethaneToAirInputsProduction"
    },
    "methodModel": {
      "@type": "Term",
      "@id": "ecoinventV3"
    },
    "value": [
      2.9082508776292044e-9
    ],
    "methodTier": "background",
    "inputs": [
      {
        "@type": "Term",
        "name": "Herbicide unspecified (AI)",
        "termType": "pesticideAI",
        "@id": "herbicideUnspecifiedAi",
        "units": "kg active ingredient"
      }
    ]
  },
  {
    "@type": "Emission",
    "term": {
      "@type": "Term",
      "@id": "11DichlorotetrafluoroethaneToAirInputsProduction"
    },
    "methodModel": {
      "@type": "Term",
      "@id": "ecoinventV3"
    },
    "value": [
      1.690715771550813e-7
    ],
    "methodTier": "background",
    "inputs": [
      {
        "@type": "Term",
        "name": "Herbicide unspecified (AI)",
        "termType": "pesticideAI",
        "@id": "herbicideUnspecifiedAi",
        "units": "kg active ingredient"
      }
    ]
  },
  {
    "@type": "Emission",
    "term": {
      "@type": "Term",
      "@id": "nh3ToAirInputsProduction"
    },
    "methodModel": {
      "@type": "Term",
      "@id": "ecoinventV3"
    },
    "value": [
      0.04353425274968665
    ],
    "methodTier": "background",
    "inputs": [
      {
        "@id": "CAS-78821-43-9",
        "@type": "Term",
        "termType": "pesticideAI"
      }
    ]
  },
  {
    "@type": "Emission",
    "term": {
      "@type": "Term",
      "@id": "co2ToAirInputsProduction"
    },
    "methodModel": {
      "@type": "Term",
      "@id": "ecoinventV3"
    },
    "value": [
      277.8189078053255
    ],
    "methodTier": "background",
    "inputs": [
      {
        "@id": "CAS-78821-43-9",
        "@type": "Term",
        "termType": "pesticideAI"
      }
    ]
  },
  {
    "@type": "Emission",
    "term": {
      "@type": "Term",
      "@id": "n2OToAirInputsProduction"
    },
    "methodModel": {
      "@type": "Term",
      "@id": "ecoinventV3"
    },
    "value": [
      0.049685710741006486
    ],
    "methodTier": "background",
    "inputs": [
      {
        "@id": "CAS-78821-43-9",
        "@type": "Term",
        "termType": "pesticideAI"
      }
    ]
  },
  {
    "@type": "Emission",
    "term": {
      "@type": "Term",
      "@id": "ch4ToAirInputsProductionFossil"
    },
    "methodModel": {
      "@type": "Term",
      "@id": "ecoinventV3"
    },
    "value": [
      1.1932097397887793
    ],
    "methodTier": "background",
    "inputs": [
      {
        "@id": "CAS-78821-43-9",
        "@type": "Term",
        "termType": "pesticideAI"
      }
    ]
  },
  {
    "@type": "Emission",
    "term": {
      "@type": "Term",
      "@id": "ch4ToAirInputsProductionNonFossil"
    },
    "methodModel": {
      "@type": "Term",
      "@id": "ecoinventV3"
    },
    "value": [
      0.01165976298823077
    ],
    "methodTier": "background",
    "inputs": [
      {
        "@id": "CAS-78821-43-9",
        "@type": "Term",
        "termType": "pesticideAI"
      }
    ]
  },
  {
    "@type": "Emission",
    "term": {
      "@type": "Term",
      "@id": "noxToAirInputsProduction"
    },
    "methodModel": {
      "@type": "Term",
      "@id": "ecoinventV3"
    },
    "value": [
      0.7686795034305286
    ],
    "methodTier": "background",
    "inputs": [
      {
        "@id": "CAS-78821-43-9",
        "@type": "Term",
        "termType": "pesticideAI"
      }
    ]
  },
  {
    "@type": "Emission",
    "term": {
      "@type": "Term",
      "@id": "so2ToAirInputsProduction"
    },
    "methodModel": {
      "@type": "Term",
      "@id": "ecoinventV3"
    },
    "value": [
      2.017203163707844
    ],
    "methodTier": "background",
    "inputs": [
      {
        "@id": "CAS-78821-43-9",
        "@type": "Term",
        "termType": "pesticideAI"
      }
    ]
  },
  {
    "@type": "Emission",
    "term": {
      "@type": "Term",
      "@id": "bromochlorodifluoromethaneToAirInputsProduction"
    },
    "methodModel": {
      "@type": "Term",
      "@id": "ecoinventV3"
    },
    "value": [
      7.628636708817307e-7
    ],
    "methodTier": "background",
    "inputs": [
      {
        "@id": "CAS-78821-43-9",
        "@type": "Term",
        "termType": "pesticideAI"
      }
    ]
  },
  {
    "@type": "Emission",
    "term": {
      "@type": "Term",
      "@id": "chlorodifluoromethaneToAirInputsProduction"
    },
    "methodModel": {
      "@type": "Term",
      "@id": "ecoinventV3"
    },
    "value": [
      0.000014768814120350558
    ],
    "methodTier": "background",
    "inputs": [
      {
        "@id": "CAS-78821-43-9",
        "@type": "Term",
        "termType": "pesticideAI"
      }
    ]
  },
  {
    "@type": "Emission",
    "term": {
      "@type": "Term",
      "@id": "dichlorodifluoromethaneToAirInputsProduction"
    },
    "methodModel": {
      "@type": "Term",
      "@id": "ecoinventV3"
    },
    "value": [
      0.000035627486710147584
    ],
    "methodTier": "background",
    "inputs": [
      {
        "@id": "CAS-78821-43-9",
        "@type": "Term",
        "termType": "pesticideAI"
      }
    ]
  },
  {
    "@type": "Emission",
    "term": {
      "@type": "Term",
      "@id": "112TrichlorotrifluoroethaneToAirInputsProduction"
    },
    "methodModel": {
      "@type": "Term",
      "@id": "ecoinventV3"
    },
    "value": [
      4.847084796048674e-8
    ],
    "methodTier": "background",
    "inputs": [
      {
        "@id": "CAS-78821-43-9",
        "@type": "Term",
        "termType": "pesticideAI"
      }
    ]
  },
  {
    "@type": "Emission",
    "term": {
      "@type": "Term",
      "@id": "11DichlorotetrafluoroethaneToAirInputsProduction"
    },
    "methodModel": {
      "@type": "Term",
      "@id": "ecoinventV3"
    },
    "value": [
      0.000002817859619251355
    ],
    "methodTier": "background",
    "inputs": [
      {
        "@id": "CAS-78821-43-9",
        "@type": "Term",
        "termType": "pesticideAI"
      }
    ]
  },
  {
    "@type": "Emission",
    "term": {
      "@type": "Term",
      "@id": "nh3ToAirInputsProduction"
    },
    "methodModel": {
      "@type": "Term",
      "@id": "ecoinventV3"
    },
    "value": [
      0.04353425274968665
    ],
    "methodTier": "background",
    "inputs": [
      {
        "@id": "CAS-78821-42-8",
        "@type": "Term",
        "termType": "pesticideAI"
      }
    ]
  },
  {
    "@type": "Emission",
    "term": {
      "@type": "Term",
      "@id": "co2ToAirInputsProduction"
    },
    "methodModel": {
      "@type": "Term",
      "@id": "ecoinventV3"
    },
    "value": [
      277.8189078053255
    ],
    "methodTier": "background",
    "inputs": [
      {
        "@id": "CAS-78821-42-8",
        "@type": "Term",
        "termType": "pesticideAI"
      }
    ]
  },
  {
    "@type": "Emission",
    "term": {
      "@type": "Term",
      "@id": "n2OToAirInputsProduction"
    },
    "methodModel": {
      "@type": "Term",
      "@id": "ecoinventV3"
    },
    "value": [
      0.049685710741006486
    ],
    "methodTier": "background",
    "inputs": [
      {
        "@id": "CAS-78821-42-8",
        "@type": "Term",
        "termType": "pesticideAI"
      }
    ]
  },
  {
    "@type": "Emission",
    "term": {
      "@type": "Term",
      "@id": "ch4ToAirInputsProductionFossil"
    },
    "methodModel": {
      "@type": "Term",
      "@id": "ecoinventV3"
    },
    "value": [
      1.1932097397887793
    ],
    "methodTier": "background",
    "inputs": [
      {
        "@id": "CAS-78821-42-8",
        "@type": "Term",
        "termType": "pesticideAI"
      }
    ]
  },
  {
    "@type": "Emission",
    "term": {
      "@type": "Term",
      "@id": "ch4ToAirInputsProductionNonFossil"
    },
    "methodModel": {
      "@type": "Term",
      "@id": "ecoinventV3"
    },
    "value": [
      0.01165976298823077
    ],
    "methodTier": "background",
    "inputs": [
      {
        "@id": "CAS-78821-42-8",
        "@type": "Term",
        "termType": "pesticideAI"
      }
    ]
  },
  {
    "@type": "Emission",
    "term": {
      "@type": "Term",
      "@id": "noxToAirInputsProduction"
    },
    "methodModel": {
      "@type": "Term",
      "@id": "ecoinventV3"
    },
    "value": [
      0.7686795034305286
    ],
    "methodTier": "background",
    "inputs": [
      {
        "@id": "CAS-78821-42-8",
        "@type": "Term",
        "termType": "pesticideAI"
      }
    ]
  },
  {
    "@type": "Emission",
    "term": {
      "@type": "Term",
      "@id": "so2ToAirInputsProduction"
    },
    "methodModel": {
      "@type": "Term",
      "@id": "ecoinventV3"
    },
    "value": [
      2.017203163707844
    ],
    "methodTier": "background",
    "inputs": [
      {
        "@id": "CAS-78821-42-8",
        "@type": "Term",
        "termType": "pesticideAI"
      }
    ]
  },
  {
    "@type": "Emission",
    "term": {
      "@type": "Term",
      "@id": "bromochlorodifluoromethaneToAirInputsProduction"
    },
    "methodModel": {
      "@type": "Term",
      "@id": "ecoinventV3"
    },
    "value": [
      7.628636708817307e-7
    ],
    "methodTier": "background",
    "inputs": [
      {
        "@id": "CAS-78821-42-8",
        "@type": "Term",
        "termType": "pesticideAI"
      }
    ]
  },
  {
    "@type": "Emission",
    "term": {
      "@type": "Term",
      "@id": "chlorodifluoromethaneToAirInputsProduction"
    },
    "methodModel": {
      "@type": "Term",
      "@id": "ecoinventV3"
    },
    "value": [
      0.000014768814120350558
    ],
    "methodTier": "background",
    "inputs": [
      {
        "@id": "CAS-78821-42-8",
        "@type": "Term",
        "termType": "pesticideAI"
      }
    ]
  },
  {
    "@type": "Emission",
    "term": {
      "@type": "Term",
      "@id": "dichlorodifluoromethaneToAirInputsProduction"
    },
    "methodModel": {
      "@type": "Term",
      "@id": "ecoinventV3"
    },
    "value": [
      0.000035627486710147584
    ],
    "methodTier": "background",
    "inputs": [
      {
        "@id": "CAS-78821-42-8",
        "@type": "Term",
        "termType": "pesticideAI"
      }
    ]
  },
  {
    "@type": "Emission",
    "term": {
      "@type": "Term",
      "@id": "112TrichlorotrifluoroethaneToAirInputsProduction"
    },
    "methodModel": {
      "@type": "Term",
      "@id": "ecoinventV3"
    },
    "value": [
      4.847084796048674e-8
    ],
    "methodTier": "background",
    "inputs": [
      {
        "@id": "CAS-78821-42-8",
        "@type": "Term",
        "termType": "pesticideAI"
      }
    ]
  },
  {
    "@type": "Emission",
    "term": {
      "@type": "Term",
      "@id": "11DichlorotetrafluoroethaneToAirInputsProduction"
    },
    "methodModel": {
      "@type": "Term",
      "@id": "ecoinventV3"
    },
    "value": [
      0.000002817859619251355
    ],
    "methodTier": "background",
    "inputs": [
      {
        "@id": "CAS-78821-42-8",
        "@type": "Term",
        "termType": "pesticideAI"
      }
    ]
  }
]
