[
  {
    "@type": "Measurement",
    "term": {
      "@type": "Term",
      "@id": "precipitationAnnual"
    },
    "value": [
      520.1
    ],
    "startDate": "2021-01",
    "endDate": "2021-12",
    "statsDefinition": "modelled",
    "methodClassification": "modelled using other physical measurements"
  }
]
