[
  {
    "term": {
      "@id": "seed",
      "@type": "Term"
    },
    "min": [
      5
    ],
    "max": [
      10
    ],
    "statsDefinition": "modelled",
    "@type": "Input",
    "value": [
      7.5
    ]
  }
]
