[
  {
    "@type": "Product",
    "term": {
      "@type": "Term",
      "@id": "excretaPoultryKgN"
    },
    "value": [
      771.584
    ],
    "statsDefinition": "modelled",
    "model": {
      "@type": "Term",
      "@id": "pooreNemecek2018"
    }
  }
]
