{
  "@type": "Indicator",
  "term": {
    "@type": "Term",
    "@id": "ecosystemDamageOzoneFormation"
  },
  "methodModel": {
    "@type": "Term",
    "@id": "recipe2016Egalitarian"
  },
  "value": 0.0039961335086655175
}
