[
  {
    "@type": "Practice",
    "term": {
      "@type": "Term",
      "@id": "feedConversionRatioCarbon"
    },
    "statsDefinition": "modelled",
    "value": [
      0.6798708698060938
    ]
  },
  {
    "@type": "Practice",
    "term": {
      "@type": "Term",
      "@id": "feedConversionRatioDryMatter"
    },
    "statsDefinition": "modelled",
    "value": [
      1.6467590027700818
    ]
  },
  {
    "@type": "Practice",
    "term": {
      "@type": "Term",
      "@id": "feedConversionRatioEnergy"
    },
    "statsDefinition": "modelled",
    "value": [
      32.3748033240997
    ]
  },
  {
    "@type": "Practice",
    "term": {
      "@type": "Term",
      "@id": "feedConversionRatioFedWeight"
    },
    "statsDefinition": "modelled",
    "value": [
      1.8836565096952895
    ]
  },
  {
    "@type": "Practice",
    "term": {
      "@type": "Term",
      "@id": "feedConversionRatioNitrogen"
    },
    "statsDefinition": "modelled",
    "value": [
      0.04733356675900276
    ]
  }
]
