{
  "id": "fake-cycle",
  "type": "Cycle",
  "name": "fake cycle",
  "functionalUnit": "1 ha",
  "defaultSource": {
    "id": "fake-source",
    "type": "Source"
  },
  "dataPrivate": false,
  "endDate": "2009",
  "cycleDuration": 365,
  "site": {
    "id": "fake-site",
    "type": "Site"
  },
  "products": [
    {
      "@type": "Product",
      "term": {
        "@id": "aboveGroundCropResidueRemoved",
        "@type": "Term"
      },
      "value": [
        2674.49
      ]
    }
  ],
  "practices": [
    {
      "term": {
        "@type": "Term",
        "name": "Residue removed",
        "termType": "cropResidueManagement",
        "@id": "residueRemoved",
        "units": "percent"
      },
      "value": [
        10
      ],
      "@type": "Practice"
    }
  ],
  "completeness": {
    "@type": "Completeness",
    "electricityFuel": true,
    "material": true,
    "fertiliser": true,
    "other": true,
    "pesticidesAntibiotics": true,
    "soilAmendments": true,
    "water": true,
    "products": true,
    "cropResidue": false,
    "animalFeed": true,
    "transport": false,
    "excreta": true,
    "waste": true,
    "liveAnimals": true,
    "operations": true
  },
  "defaultMethodClassification": "modelled",
  "defaultMethodClassificationDescription": "description"
}
