{
  "id": "fake-impact",
  "type": "ImpactAssessment",
  "allocationMethod": "none required",
  "country": {
    "@id": "GADM-NPL",
    "@type": "Term",
    "name": "Nepal"
  },
  "cycle": {
    "id": "fake-cycle",
    "type": "Cycle",
    "functionalUnit": "1 ha",
    "cycleDuration": 182.5,
    "site": {
      "id": "fake-site",
      "type": "Site",
      "siteType": "cropland"
    },
    "practices": [
      {
        "@type": "Practice",
        "term": {
          "@id": "longFallowRatio",
          "@type": "Term",
          "termType": "landUseManagement"
        },
        "value": [
          1
        ]
      }
    ],
    "inputs": [
      {
        "term": {
          "@type": "Term",
          "name": "Wheat, grain",
          "termType": "crop",
          "@id": "wheatGrain",
          "units": "kg"
        },
        "value": [
          40
        ],
        "@type": "Input",
        "impactAssessment": {
          "@id": "wheatGrain-australia-2001-2010",
          "@type": "ImpactAssessment"
        },
        "impactAssessmentIsProxy": true
      },
      {
        "term": {
          "@type": "Term",
          "name": "Diesel",
          "termType": "fuel",
          "@id": "diesel",
          "units": "kg"
        },
        "value": [
          18.148
        ],
        "@type": "Input",
        "impactAssessment": {
          "@id": "lepizrv6wt5h",
          "@type": "ImpactAssessment"
        },
        "impactAssessmentIsProxy": true
      }
    ],
    "products": [
      {
        "term": {
          "@type": "Term",
          "name": "Wheat, grain",
          "termType": "crop",
          "@id": "wheatGrain",
          "units": "kg"
        },
        "value": [
          100
        ],
        "economicValueShare": 100,
        "primary": true,
        "@type": "Product"
      }
    ],
    "defaultMethodClassificationDescription": "description"
  },
  "endDate": "2010",
  "functionalUnitQuantity": 1,
  "product": {
    "@id": "wheatGrain",
    "@type": "Term",
    "termType": "crop"
  },
  "source": {
    "id": "fake-source",
    "type": "Source"
  },
  "dataPrivate": false
}
