{
  "id": "fake-cycle",
  "type": "Cycle",
  "name": "fake cycle",
  "functionalUnit": "1 ha",
  "defaultSource": {
    "id": "fake-source",
    "type": "Source"
  },
  "dataPrivate": false,
  "site": {
    "id": "fake-site",
    "type": "Site",
    "siteType": "cropland"
  },
  "endDate": "2009",
  "cycleDuration": 365,
  "inputs": [
    {
      "@type": "Input",
      "term": {
        "@type": "Term",
        "name": "Excreta, dairy cattle (kg N)",
        "termType": "excreta",
        "@id": "excretaDairyCattleKgN",
        "units": "kg N"
      },
      "value": [
        70
      ]
    }
  ],
  "completeness": {
    "@type": "Completeness",
    "electricityFuel": true,
    "material": true,
    "fertiliser": true,
    "other": true,
    "pesticidesAntibiotics": true,
    "soilAmendments": true,
    "water": true,
    "products": true,
    "cropResidue": true,
    "animalFeed": true,
    "transport": false,
    "excreta": true,
    "waste": true,
    "liveAnimals": true,
    "operations": true
  },
  "defaultMethodClassification": "modelled",
  "defaultMethodClassificationDescription": "description"
}
