{
  "id": "fake-cycle",
  "type": "Cycle",
  "name": "fake cycle",
  "functionalUnit": "1 ha",
  "defaultSource": {
    "id": "fake-source",
    "type": "Source"
  },
  "dataPrivate": false,
  "endDate": "2009",
  "cycleDuration": 365,
  "site": {
    "id": "fake-site",
    "type": "Site",
    "siteType": "cropland",
    "measurements": [
      {
        "@type": "Measurement",
        "term": {
          "@id": "slope",
          "@type": "Term",
          "name": "Slope",
          "units": "%",
          "termType": "measurement"
        },
        "value": [
          100
        ],
        "methodClassification": "unsourced assumption"
      }
    ]
  },
  "inputs": [
    {
      "term": {
        "@type": "Term",
        "name": "Manure, fresh (kg N)",
        "termType": "organicFertiliser",
        "@id": "manureFreshKgN",
        "units": "kg N"
      },
      "properties": [
        {
          "term": {
            "@type": "Term",
            "name": "Phosphate content (as P2O5)",
            "termType": "property",
            "@id": "phosphateContentAsP2O5",
            "units": "%"
          },
          "value": 51.9,
          "@type": "Property"
        }
      ],
      "value": [
        70
      ],
      "@type": "Input"
    },
    {
      "term": {
        "@type": "Term",
        "name": "Slurry and sludge (kg N)",
        "termType": "organicFertiliser",
        "@id": "slurryAndSludgeKgN",
        "units": "kg N"
      },
      "properties": [
        {
          "term": {
            "@type": "Term",
            "name": "Phosphate content (as P2O5)",
            "termType": "property",
            "@id": "phosphateContentAsP2O5",
            "units": "%"
          },
          "value": 52.1959813,
          "@type": "Property"
        }
      ],
      "value": [
        50
      ],
      "@type": "Input"
    },
    {
      "term": {
        "@id": "tripleSuperPhosphateKgP2O5",
        "@type": "Term",
        "name": "Triple Super Phosphate (kg P2O5)",
        "units": "kg P2O5",
        "termType": "inorganicFertiliser"
      },
      "value": [
        60
      ],
      "@type": "Input"
    }
  ],
  "completeness": {
    "@type": "Completeness",
    "electricityFuel": true,
    "material": true,
    "fertiliser": true,
    "other": true,
    "pesticidesAntibiotics": true,
    "soilAmendments": true,
    "water": true,
    "products": true,
    "cropResidue": true,
    "animalFeed": true,
    "transport": false,
    "excreta": true,
    "waste": true,
    "liveAnimals": true,
    "operations": true
  },
  "defaultMethodClassification": "modelled",
  "defaultMethodClassificationDescription": "description"
}
