[
  {
    "term": {
      "@id": "pToGroundwaterSoilFlux",
      "@type": "Term"
    },
    "value": [
      0.07456714836375002
    ],
    "methodTier": "tier 1",
    "@type": "Emission",
    "methodModel": {
      "@type": "Term",
      "@id": "schererPfister2015"
    },
    "statsDefinition": "modelled"
  }
]
