[
  {
    "term": {
      "@id": "nitrogenUptakeEdiblePart",
      "@type": "Term",
      "termType": "crop"
    },
    "value": [
      2900
    ],
    "@type": "Product",
    "price": 0,
    "currency": "USD"
  }
]
