{
  "@type": "Indicator",
  "term": {
    "@type": "Term",
    "@id": "eutrophicationPotentialExcludingFate"
  },
  "methodModel": {
    "@type": "Term",
    "@id": "cml2001Baseline"
  },
  "value": 0.00534199355656062
}
